^C:\USERS\MAGSHIMIM\DOCUMENTS\PROGRAMMING\ADVANCEDPROGRAMMING\LESSON 9\FUNCTEMP\FUNCTEMP\INT.CPP|C:\USERS\MAGSHIMIM\DOCUMENTS\PROGRAMMING\ADVANCEDPROGRAMMING\LESSON 9\FUNCTEMP\FUNCTEMP\MAIN.CPP
C:\USERS\MAGSHIMIM\DOCUMENTS\PROGRAMMING\ADVANCEDPROGRAMMING\LESSON 9\FUNCTEMP\FUNCTEMP\DEBUG\VC141.PDB
C:\USERS\MAGSHIMIM\DOCUMENTS\PROGRAMMING\ADVANCEDPROGRAMMING\LESSON 9\FUNCTEMP\FUNCTEMP\DEBUG\VC141.IDB
C:\USERS\MAGSHIMIM\DOCUMENTS\PROGRAMMING\ADVANCEDPROGRAMMING\LESSON 9\FUNCTEMP\FUNCTEMP\DEBUG\MAIN.OBJ
C:\USERS\MAGSHIMIM\DOCUMENTS\PROGRAMMING\ADVANCEDPROGRAMMING\LESSON 9\FUNCTEMP\FUNCTEMP\DEBUG\INT.OBJ
^C:\USERS\MAGSHIMIM\DOCUMENTS\PROGRAMMING\ADVANCEDPROGRAMMING\LESSON 9\FUNCTEMP\FUNCTEMP\INT.CPP
C:\USERS\MAGSHIMIM\DOCUMENTS\PROGRAMMING\ADVANCEDPROGRAMMING\LESSON 9\FUNCTEMP\FUNCTEMP\DEBUG\VC141.PDB
^C:\USERS\MAGSHIMIM\DOCUMENTS\PROGRAMMING\ADVANCEDPROGRAMMING\LESSON 9\FUNCTEMP\FUNCTEMP\MAIN.CPP
C:\USERS\MAGSHIMIM\DOCUMENTS\PROGRAMMING\ADVANCEDPROGRAMMING\LESSON 9\FUNCTEMP\FUNCTEMP\DEBUG\VC141.PDB
C:\USERS\MAGSHIMIM\DOCUMENTS\PROGRAMMING\ADVANCEDPROGRAMMING\LESSON 9\FUNCTEMP\FUNCTEMP\DEBUG\VC141.IDB
C:\USERS\MAGSHIMIM\DOCUMENTS\PROGRAMMING\ADVANCEDPROGRAMMING\LESSON 9\FUNCTEMP\FUNCTEMP\DEBUG\MAIN.OBJ
